{
    "0x00000000000000000000000000000000DeaDBeef": "0x0000000000000000000000000000000000000000",
    "0xFBaEdde70732540cE2B11A8AC58Eb2dC0D69dE10": "0xEb3107117FEAd7de89Cd14D463D340A2E6917769",
    "0x0327112423F3A68efdF1fcF402F6c5CB9f7C33fd": "0x3bFdA5285416eB06Ebc8bc0aBf7d105813af06d0",
    "0x9A48BD0EC040ea4f1D3147C025cd4076A2e71e3e": "0x15e923eb041C5539b422667A59dd9eF7B7e369ab",
    "0xCa6C278d3194C0Ad3D09b7F5a847c3F758A78ce6": "0xFC92a2E35FF6be5614c66Bc9D3a400C18D6f6e3a",
    "0x881c72D1e6317f10a1cDCBe05040E7564E790C80": "0x437E8C54Db5C66Bb3D80D2FF156e9bfe31a017db",
    "0xf7575D4D4DB78F6Ba43C734616C51E9fD4bAA7fb": "0x437E8C54Db5C66Bb3D80D2FF156e9bfe31a017db",
    "0x25970282aAC735Cd4c76f30BfB0Bf2BC8DAD4e70": "0x437E8C54Db5C66Bb3D80D2FF156e9bfe31a017db",
    "0xf4a7d2d85F4BA11B5C73c35E27044c0c49F7f027": "0x437E8C54Db5C66Bb3D80D2FF156e9bfe31a017db",
    "0x0d4CD2c24A4c9Cd31fCf0d3C4682D234d9f94Be4": "0x437E8C54Db5C66Bb3D80D2FF156e9bfe31a017db",
    "0xB8312ad5dF6C3863935b6174f07CD5c55D6012FA": "0xFC92a2E35FF6be5614c66Bc9D3a400C18D6f6e3a",
    "0xAFfcD3D45cEF58B1DfA773463824c6F6bB0Dc13a": "0x887F507EaAc58adD20263C6918538A9BdC882d47",
    "0xfAe0ADb2d30E2a63730AC927E4e15e96D69B4aDd": "0x53b6fe8C6FA6b95119853f2929C8C6D61F437236",
    "0xed41F2b444D72648647d6f5a124Ad15574963706": "0x53b6fe8C6FA6b95119853f2929C8C6D61F437236",
    "0x0190bF688fF57B935e99487AaceBAccf450C5D4f": "0x53b6fe8C6FA6b95119853f2929C8C6D61F437236",
    "0xa40d04a73d6E00049d8A72623Ef8b75879059F70": "0x53b6fe8C6FA6b95119853f2929C8C6D61F437236",
    "0x5859D111210dd9FE6F11502b65C1BF26a46018d2": "0x53b6fe8C6FA6b95119853f2929C8C6D61F437236",
    "0x8124502fB129eB1B0052725CfD126e8EB0975ab1": "0x53b6fe8C6FA6b95119853f2929C8C6D61F437236",
    "0xf49A20407b92332704B5FE4942c95D7d134b843b": "0x53b6fe8C6FA6b95119853f2929C8C6D61F437236",
    "0x23b53026187626Ed8488e119767ACB2Fe5F8de4e": "0x53b6fe8C6FA6b95119853f2929C8C6D61F437236",
    "0x78F225869c08d478c34e5f645d07A87d3fe8eb78": "0x4efD8CEad66bb0fA64C8d53eBE65f31663199C6d",
    "0x9CF178df8DDb65B9ea7d4C2f5d1610eB82927230": "0x3b66890289366175c360c1F0e1BafaE06276BA03",
    "0xE4f726Adc8e89C6a6017F01eadA77865dB22dA14": "0x4efD8CEad66bb0fA64C8d53eBE65f31663199C6d",
    "0x8D1ce361eb68e9E05573443C407D4A3Bed23B033": "0x4efD8CEad66bb0fA64C8d53eBE65f31663199C6d",
    "0xD617B927b949D980451Bf5D799E7BB532e0041F0": "0x6D598fb1A1c901f22257b7E65C55BF2C06C1aCA8",
    "0x50698C69F3B69EAB909Fd2902E4F6e7E6a06F7F9": "0x17378F524320b600a2EE64175CE72c5e84af358D",
    "0x0AF9fDF11E8BA349B93f1f6C1b5020C20E3C46C6": "0x4B29444d24D30De6cE16616B32538224B3c41c7c",
    "0xC6a9e296B771A608EB2f3DA1fC2fB04793895fBb": "0x4B29444d24D30De6cE16616B32538224B3c41c7c",
    "0xcC50953A743B9CE382f423E37b07Efa6F9d9B000": "0x8f3c97DdC88D7A75b8c3f872b525B30932D3014c",
    "0x28CbF3348148B366E8076452179c01A387BF695e": "0x4B29444d24D30De6cE16616B32538224B3c41c7c",
    "0xa256d4bCDDC26376cFba0Fe0476098aAbD6EB7e4": "0x4B29444d24D30De6cE16616B32538224B3c41c7c",
    "0x321849C98b28756274443287653607Ec5D747b8F": "0xAB8fDe1e00aa24570e18c2B8DE0f529Bc5cA3F47",
    "0x275dFE03bc036257Cd0a713EE819Dbd4529739c8": "0x8f3c97DdC88D7A75b8c3f872b525B30932D3014c"
}
